…
                           "Rockland to north" = "North of 44; to 50M isobath",
                           "Cape Elizabeth to Rockland" = "43.5N to 44N; to 50M isobath", 
                           "Cape Ann to Cape Elizabeth" = "CAPE ANN to 43.5N", 
                           "Boston Inner Harbor" = "BOSTON INNER HARBOR", 
                           "Cape Code Bay" = "CAPE COD BAY",
                           "Gulf of Maine (>50m Isobath)" = "GULF OF MAINE, >50M ISOBATH",
                           "Northwest Boston Harbor" = "NORTHWEST BOSTON HARBOR",
                           "Southeast Boston Harbor" = "SOUTHEAST BOSTON HARBOR",
                           "Gulf of Maine (<=50m Isobath)" = "GULF OF MAINE, <=50M",
                           "Central Boston Harbor" = "CENTRAL BOSTON HARBOR",
                           "Inland/Rivers" = "INLAND / RIVERS",
                           "Harbor Approaches" = "HARBOR APPROACHES",
                           "Massachusetts Bays" = "MASS BAYS"))

## # A tibble: 7,847 × 2
##    GEN_LOC_NM              site 
##    <fct>                   <fct>
##  1 Boston Inner Harbor     BIH  
##  2 Boston Inner Harbor     BIH  
##  3 Boston Inner Harbor     BIH  
##  4 Boston Inner Harbor     BIH  
##  5 Boston Inner Harbor     BIH  
##  6 Boston Inner Harbor     BIH  
##  7 Boston Inner Harbor     BIH  
##  8 Boston Inner Harbor     BIH  
##  9 Boston Inner Harbor     BIH  
## 10 Northwest Boston Harbor OOP  
## # ℹ 7,837 more rows
…
naniar::miss_var_summary(PCBs_loc)

## # A tibble: 39 × 3
##    variable   n_miss pct_miss
##    <chr>       <int>    <dbl>
##  1 CLRDNE_T_C   7750     98.8
##  2 ENDR_ALD_C   7696     98.1
##  3 METHOXYCLC   7693     98.0
##  4 BHC_D_C      7691     98.0
##  5 BHC_B_C      7684     97.9
##  6 BHC_A_C      7671     97.7
##  7 PCB138_NGG   7521     95.8
##  8 PCB180_NGG   7520     95.8
##  9 ENDRIN_C     7437     94.8
## 10 MIREX_C      7428     94.6
## # ℹ 29 more rows
…
