…
``` r
naniar::miss_var_summary(PCBs_loc)
```

    ## # A tibble: 39 × 3
    ##    variable   n_miss pct_miss
    ##    <chr>       <int>    <dbl>
    ##  1 CLRDNE_T_C   7750     98.8
    ##  2 ENDR_ALD_C   7696     98.1
    ##  3 METHOXYCLC   7693     98.0
    ##  4 BHC_D_C      7691     98.0
    ##  5 BHC_B_C      7684     97.9
    ##  6 BHC_A_C      7671     97.7
    ##  7 PCB138_NGG   7521     95.8
    ##  8 PCB180_NGG   7520     95.8
    ##  9 ENDRIN_C     7437     94.8
    ## 10 MIREX_C      7428     94.6
    ## # ℹ 29 more rows
…
``` r
naniar::miss_var_summary(PAHs_loc)
```

    ## # A tibble: 28 × 3
    ##    variable   n_miss pct_miss
    ##    <chr>       <int>    <dbl>
    ##  1 BENZNE       7808     99.5
    ##  2 2BZFRN       7634     97.3
    ##  3 2BZTPN       7626     97.2
    ##  4 TO_SMP_DT2   7281     92.8
    ##  5 BIPHENYL     7254     92.4
    ##  6 ACNPHTHN     7215     91.9
    ##  7 ACNPHTYL     7141     91.0
    ##  8 PERYLENE     7103     90.5
    ##  9 QUAD_NAME    6875     87.6
    ## 10 ANTHRACN     6784     86.5
    ## # ℹ 18 more rows
…
``` r
naniar::miss_var_summary(Organics_loc)
```

    ## # A tibble: 28 × 3
    ##    variable   n_miss pct_miss
    ##    <chr>       <int>    <dbl>
    ##  1 LIPIDS_NGG   7845     99.9
    ##  2 MBT_C        7807     99.5
    ##  3 DBT_C        7807     99.5
    ##  4 TBT_C        7807     99.5
    ##  5 TTBT_C       7807     99.5
    ##  6 DDE_T_NGG    7773     99.0
    ##  7 DDD_T_NGG    7768     99.0
    ##  8 PEST_UG_G    7764     98.9
    ##  9 PHCTOT_UGG   7660     97.6
    ## 10 O_G_UGG      7597     96.8
    ## # ℹ 18 more rows
…
