…
AP- I’m not sure where to put the graph below. This plot shows us the
exact quantity of PAH found at each site.

``` r
PAHs %>%
  group_by(GEN_LOC_NM, pah_detected) %>%
  summarise(amount_detected = sum(amount_detected, na.rm = TRUE)) %>%
  arrange(desc(amount_detected))
```

    ## `summarise()` has grouped output by 'GEN_LOC_NM'. You can override using the
    ## `.groups` argument.

    ## # A tibble: 182 × 3
    ## # Groups:   GEN_LOC_NM [14]
    ##    GEN_LOC_NM                 pah_detected amount_detected
    ##    <chr>                      <chr>                  <dbl>
    ##  1 Boston Inner Harbor        CHRYSENE             569679.
    ##  2 Boston Inner Harbor        PYRENE               346680.
    ##  3 Boston Inner Harbor        FLORNTHN             319594.
    ##  4 Northwest Boston Harbor    PYRENE               315904.
    ##  5 Northwest Boston Harbor    FLORNTHN             312943.
    ##  6 Boston Inner Harbor        PHNANTHR             221666.
    ##  7 Northwest Boston Harbor    PHNANTHR             219061.
    ##  8 Northwest Boston Harbor    CHRYSENE             200784.
    ##  9 Cape Elizabeth to Rockland FLORNTHN             116706.
    ## 10 Cape Elizabeth to Rockland CHRYSENE             112928.
    ## # ℹ 172 more rows
…
``` r
Sum_PAH_site <- PAHs %>%
  group_by(site) %>%
  drop_na(amount_detected) %>%
  summarise(mean_PAH_T = mean(amount_detected),
    sd_PAH_T = sd(amount_detected),
    n_PAH_T = n(),
    SE_PAH_T = sd(amount_detected) / sqrt(n()))

Sum_PAH_site
```

    ## # A tibble: 174 × 5
    ##    site                                     mean_PAH_T sd_PAH_T n_PAH_T SE_PAH_T
    ##    <chr>                                         <dbl>    <dbl>   <int>    <dbl>
    ##  1 ?Boston Inner Harbor; plots in central …     662.      347.        6   142.  
    ##  2 Aquarium                                    1157      1274.        7   481.  
    ##  3 Boston Channel                               400.      445.       11   134.  
    ##  4 Boston Harbor, Fort Point Channel           1631.     2546.      150   208.  
    ##  5 Boston Harbor, Peddocks Island               169.      217.      208    15.1 
    ##  6 Boston Harbor, Spectacle Island              529.      742.      100    74.2 
    ##  7 Boston Wharves                              1033.     1043.       11   314.  
    ##  8 CHANCE ISLAND                                  6.36     10.9      66     1.35
    ##  9 CHELSEA RIVER                                 37.7     151.       16    37.7 
    ## 10 CLARKS ISLAND                                 19.5      27.6      60     3.57
    ## # ℹ 164 more rows

Below we are identifying specific Maine rivers to use in our analysis.

``` r
PAHs %>%
  filter(STATE_NAME == "ME") %>%
  filter(amount_detected != "NA") %>%
  distinct(site)
```

    ## # A tibble: 25 × 1
    ##    site                  
    ##    <chr>                 
    ##  1 Fore River            
    ##  2 Royal River           
    ##  3 Peaks Island          
    ##  4 Kennebunk River       
    ##  5 Mack Point            
    ##  6 Camden Harbor         
    ##  7 Lermond Cove          
    ##  8 CHANCE ISLAND         
    ##  9 COUSINS ISLAND        
    ## 10 GREAT CHEBEAGUE ISLAND
    ## # ℹ 15 more rows
…
Next, we will analyze Rivers in Massachusetts.

``` r
PAHs %>%
  filter(STATE_NAME == "MA") %>%
  filter(pah_detected != "NA") %>%
  distinct(site, pah_detected, amount_detected) %>%
  arrange(desc(amount_detected))
```

    ## # A tibble: 8,205 × 3
    ##    site                          pah_detected amount_detected
    ##    <chr>                         <chr>                  <dbl>
    ##  1 Fort Point Channel            CHRYSENE              364726
    ##  2 Fort Point Channel            FLORNTHN               84514
    ##  3 btwn DeerI. &GovernorsI.Flats PYRENE                 72000
    ##  4 Fort Point Channel            PYRENE                 66831
    ##  5 Chelsea River                 FLORNTHN               64145
    ##  6 btwn DeerI. &GovernorsI.Flats FLORNTHN               64000
    ##  7 Fort Point Channel            PHNANTHR               63683
    ##  8 btwn DeerI. &GovernorsI.Flats CHRYSENE               51000
    ##  9 Chelsea River                 PYRENE                 50127
    ## 10 Chelsea River                 PHNANTHR               49094
    ## # ℹ 8,195 more rows
…
