…
### Specific Locations

``` r
Sum_Org_site <- Organics %>%
  group_by(site) %>%
  drop_na(PCB_T_UGG) %>%
  summarise(mean_PCB_T = mean(PCB_T_UGG),
    sd_PCB_T = sd(PCB_T_UGG),
    n_PCB_T = n(),
    SE_PCB_T = sd(PCB_T_UGG) / sqrt(n()))

Sum_Org_site
```

    ## # A tibble: 180 × 5
    ##    site                           mean_PCB_T sd_PCB_T n_PCB_T SE_PCB_T
    ##    <chr>                               <dbl>    <dbl>   <int>    <dbl>
    ##  1 1-U.S. GypsumCo.200TerminalSt.     1.5     NA            1  NA     
    ##  2 2-U.S. GypsumCo.200TerminalSt.     1.1     NA            1  NA     
    ##  3 3-U.S. GypsumCo.200TerminalSt.     0.8     NA            1  NA     
    ##  4 4-U.S. GypsumCo.200TerminalSt.     0.2     NA            1  NA     
    ##  5 BASS RIVER                         1.97     1.70         3   0.980 
    ##  6 BEVERLY HARBOR                     0       NA            1  NA     
    ##  7 BIH                                5.10    20.0         37   3.29  
    ##  8 BOI                                0.116    0.0396       8   0.014 
    ##  9 BOSTON HARBOR                      0.0809   0.0495       4   0.0247
    ## 10 BOSTON HARBOR MARINA               0        0            2   0     
    ## # ℹ 170 more rows
…
